<?xml version="1.0" ?>

<!-- Uploaded to: SVG Repo, www.svgrepo.com, Generator: SVG Repo Mixer Tools -->
<svg fill="#ffffff" width="800px" height="800px" viewBox="0 0 64 64" id="Layer_1_1_" version="1.1" xml:space="preserve" xmlns="http://www.w3.org/2000/svg" xmlns:xlink="http://www.w3.org/1999/xlink">

<g>

<path d="M58.125,38.089C58.688,37.181,59,36.119,59,35v-0.146C59,31.626,56.374,29,53.146,29c-0.902,0-1.808,0.214-2.618,0.618   L49,30.382V28c0-5.347-2.486-10.118-6.358-13.237C42.875,13.864,43,12.939,43,12c0-6.065-4.935-11-11-11S21,5.935,21,12   c0,0.939,0.125,1.865,0.358,2.763C17.486,17.882,15,22.653,15,28v2.382l-1.528-0.764C12.662,29.214,11.757,29,10.854,29   C7.626,29,5,31.626,5,34.854V35c0,1.119,0.312,2.181,0.875,3.089C3.112,38.557,1,40.96,1,43.854V44c0,2.231,1.24,4.238,3.236,5.236   l2.866,1.434c1.471,0.736,2.87,1.621,4.18,2.621c-0.409,0.445-0.781,0.929-1.099,1.459L5.233,63h53.533l-4.95-8.25   c-0.318-0.53-0.69-1.014-1.099-1.459c1.31-1,2.709-1.885,4.18-2.621l2.866-1.434C61.76,48.238,63,46.231,63,44v-0.146   C63,40.96,60.888,38.557,58.125,38.089z M51.421,31.407C51.955,31.141,52.552,31,53.146,31C55.271,31,57,32.729,57,34.854V35   c0,1.47-0.816,2.79-2.131,3.447l-0.341,0.171c0,0-0.001,0-0.001,0l-2.975,1.487l0.008,0.015c-4.182,2.186-7.773,5.395-10.395,9.33   l-0.081,0.123L38,49.133v-1.612c3.007-1.573,5.326-4.282,6.378-7.559C46.956,39.765,49,37.628,49,35v-2.382L51.421,31.407z    M26.33,51.106c0.498,1.162,1.494,2.575,3.117,3.34C29.169,54.9,29,55.429,29,56c0,1.654,1.346,3,3,3s3-1.346,3-3   c0-0.571-0.169-1.1-0.447-1.555c1.623-0.764,2.619-2.177,3.117-3.34l9.42,1.346c0.21,0.03,0.415,0.076,0.619,0.124   c-1.012,2.71-1.579,5.536-1.685,8.424H17.976c-0.106-2.888-0.673-5.714-1.686-8.424c0.204-0.048,0.41-0.094,0.62-0.124   L26.33,51.106z M21,36v-6h0.169c3.113,0,6.176,0.731,8.949,2.114c0.426,0.456,0.947,0.751,1.528,0.84L32,33.166l0.354-0.212   c0.581-0.088,1.102-0.384,1.528-0.84C36.655,30.731,39.718,30,42.831,30H43v6c0,0.642-0.067,1.268-0.173,1.88   C42.206,38.61,40.79,40,39,40c-4.29,0-6.035-3.311-6.105-3.447L32,34.764l-0.895,1.789C31.088,36.587,29.332,40,25,40   c-1.791,0-3.208-1.391-3.827-2.12C21.067,37.268,21,36.642,21,36z M27.721,23h1.305c0.023,0.212,0.06,0.422,0.128,0.624l0.81,2.43   C29.372,26.78,29,27.818,29,29c0,0.158,0.021,0.308,0.034,0.461c-0.011-0.004-0.023-0.008-0.034-0.012V29v-0.395   C29,26.65,28.562,24.741,27.721,23z M31.051,22.99C31.017,22.89,31,22.784,31,22.676V22c0-0.552,0.448-1,1-1s1,0.448,1,1v0.676   c0,0.108-0.017,0.214-0.051,0.315l-0.681,2.044C32.178,25.025,32.092,25,32,25c-0.092,0-0.178,0.025-0.268,0.035L31.051,22.99z    M34.846,23.625c0.068-0.203,0.105-0.413,0.128-0.625h1.305C35.438,24.741,35,26.65,35,28.605V29v0.448   c-0.011,0.004-0.023,0.008-0.034,0.012C34.979,29.308,35,29.158,35,29c0-1.182-0.372-2.22-0.964-2.946L34.846,23.625z M32,30.843   c-0.199-0.112-0.404-0.211-0.607-0.317C31.172,30.177,31,29.655,31,29c0-1.221,0.592-2,1-2s1,0.779,1,2   c0,0.655-0.172,1.177-0.393,1.526C32.404,30.632,32.199,30.731,32,30.843z M45,32.184c1.161,0.414,2,1.514,2,2.816   c0,1.357-0.911,2.493-2.149,2.862C44.939,37.252,45,36.634,45,36V32.184z M19.149,37.862C17.911,37.493,17,36.357,17,35   c0-1.302,0.839-2.402,2-2.816V36C19,36.634,19.061,37.252,19.149,37.862z M25,42c3.658,0,5.882-1.895,7-3.24   c1.118,1.346,3.342,3.24,7,3.24c0.966,0,1.832-0.257,2.588-0.625C39.701,44.727,36.113,47,32,47s-7.701-2.273-9.588-5.625   C23.168,41.743,24.034,42,25,42z M32,49c1.396,0,2.739-0.227,4-0.636v1.494C35.829,50.411,34.875,53,32,53s-3.829-2.589-4-3.142   v-1.494C29.261,48.773,30.604,49,32,49z M33,56c0,0.552-0.448,1-1,1s-1-0.448-1-1s0.448-1,1-1S33,55.448,33,56z M23.001,12.014   C25.61,10.048,28.708,9,32,9c1.604,0,3.182,0.251,4.688,0.747l0.625-1.9C35.604,7.285,33.816,7,32,7   c-3.031,0-6.006,0.831-8.601,2.351C24.533,5.677,27.959,3,32,3c4.044,0,7.472,2.682,8.603,6.36   c-0.384-0.226-0.766-0.456-1.165-0.651l-0.877,1.799c0.859,0.418,1.67,0.936,2.437,1.514c-0.001,0.506-0.053,1.005-0.137,1.498   C38.277,11.932,35.249,11,32,11s-6.277,0.932-8.862,2.52C23.054,13.024,23.002,12.522,23.001,12.014z M32,13   c8.271,0,15,6.729,15,15v3.026c-0.584-0.442-1.257-0.773-2-0.924V28h-2.169c-1.979,0-3.939,0.273-5.831,0.792v-0.186   c0-2.16,0.634-4.253,1.832-6.051L39.868,21h-5.052c-0.414-1.161-1.514-2-2.816-2s-2.402,0.839-2.816,2h-5.052l1.036,1.555   C26.366,24.353,27,26.445,27,28.605v0.186C25.108,28.273,23.148,28,21.169,28H19v2.101c-0.743,0.152-1.416,0.482-2,0.924V28   C17,19.729,23.729,13,32,13z M7,34.854C7,32.729,8.729,31,10.854,31c0.594,0,1.19,0.141,1.724,0.407L15,32.618V35   c0,2.628,2.044,4.765,4.622,4.962c1.052,3.277,3.371,5.987,6.378,7.559v1.612l-3.086,0.441l-0.082-0.128   c-2.62-3.93-6.21-7.138-10.392-9.325l0.008-0.015l-1.689-0.844l-1.627-0.814C7.816,37.79,7,36.47,7,35V34.854z M5.131,47.447   C3.816,46.79,3,45.47,3,44v-0.146C3,41.729,4.729,40,6.854,40c0.594,0,1.19,0.141,1.723,0.407l2.525,1.263   c3.826,1.913,7.124,4.757,9.592,8.221l-4.066,0.581c-1.389,0.198-2.683,0.713-3.806,1.481c-1.502-1.182-3.119-2.218-4.826-3.072   L5.131,47.447z M11.898,55.779c0.625-1.042,1.498-1.876,2.519-2.462c0.92,2.474,1.43,5.049,1.535,7.682H8.767L11.898,55.779z    M55.233,61h-7.186c0.105-2.633,0.615-5.209,1.535-7.683c1.022,0.586,1.894,1.42,2.52,2.462L55.233,61z M61,44   c0,1.47-0.816,2.79-2.131,3.447l-2.866,1.434c-1.706,0.854-3.324,1.89-4.826,3.072c-1.123-0.768-2.416-1.282-3.805-1.481   l-4.065-0.581c2.476-3.473,5.77-6.311,9.591-8.221l2.527-1.264C55.958,40.14,56.553,40,57.146,40C59.271,40,61,41.729,61,43.854V44   z"/>

<path d="M38,38c1.654,0,3-1.346,3-3s-1.346-3-3-3s-3,1.346-3,3S36.346,38,38,38z M38,34c0.552,0,1,0.448,1,1s-0.448,1-1,1   s-1-0.448-1-1S37.448,34,38,34z"/>

<path d="M26,38c1.654,0,3-1.346,3-3s-1.346-3-3-3s-3,1.346-3,3S24.346,38,26,38z M26,34c0.552,0,1,0.448,1,1s-0.448,1-1,1   s-1-0.448-1-1S25.448,34,26,34z"/>

<rect height="2" width="2" x="10" y="34"/>

<rect height="2" width="2" x="6" y="43"/>

<rect height="2" width="2" x="52" y="34"/>

<rect height="2" width="2" x="56" y="43"/>

</g>

</svg>